<?xml version="1.0" encoding="UTF-8" standalone="no"?>
<!-- Created with Inkscape (http://www.inkscape.org/) -->

<svg
   width="512"
   height="512"
   viewBox="0 0 512 512"
   version="1.1"
   id="svg1"
   inkscape:version="1.3.2 (091e20ef0f, 2023-11-25)"
   sodipodi:docname="logo.svg"
   inkscape:export-filename="logo.png"
   inkscape:export-xdpi="96"
   inkscape:export-ydpi="96"
   xmlns:inkscape="http://www.inkscape.org/namespaces/inkscape"
   xmlns:sodipodi="http://sodipodi.sourceforge.net/DTD/sodipodi-0.dtd"
   xmlns="http://www.w3.org/2000/svg"
   xmlns:svg="http://www.w3.org/2000/svg"
   xmlns:rdf="http://www.w3.org/1999/02/22-rdf-syntax-ns#"
   xmlns:cc="http://creativecommons.org/ns#"
   xmlns:dc="http://purl.org/dc/elements/1.1/">
  <title
     id="title1">Project logo for drupal/views_st</title>
  <sodipodi:namedview
     id="namedview1"
     pagecolor="#ffffff"
     bordercolor="#0002f7"
     borderopacity="0.81960784"
     inkscape:showpageshadow="2"
     inkscape:pageopacity="0.0"
     inkscape:pagecheckerboard="true"
     inkscape:deskcolor="#f3fef6"
     inkscape:document-units="px"
     inkscape:zoom="1"
     inkscape:cx="252"
     inkscape:cy="267"
     inkscape:window-width="1825"
     inkscape:window-height="1045"
     inkscape:window-x="82"
     inkscape:window-y="600"
     inkscape:window-maximized="1"
     inkscape:current-layer="secondary-tabs"
     showguides="true"
     showgrid="true">
    <inkscape:grid
       id="grid11"
       units="px"
       originx="0"
       originy="0"
       spacingx="8"
       spacingy="8"
       empcolor="#3f3fff"
       empopacity="0.25098039"
       color="#3f3fff"
       opacity="0.1254902"
       empspacing="4"
       dotted="false"
       gridanglex="30"
       gridanglez="30"
       visible="true" />
  </sodipodi:namedview>
  <defs
     id="defs1">
    <inkscape:path-effect
       effect="fillet_chamfer"
       id="path-effect2"
       is_visible="true"
       lpeversion="1"
       nodesatellites_param="F,0,0,1,0,0,0,1 @ F,0,0,1,0,16,0,1 @ F,0,0,1,0,16,0,1 @ F,0,0,1,0,16,0,1 @ F,0,0,1,0,16,0,1 @ F,0,0,1,0,0,0,1 @ F,0,0,1,0,0,0,1 @ F,0,0,1,0,0,0,1"
       radius="0"
       unit="px"
       method="auto"
       mode="F"
       chamfer_steps="1"
       flexible="false"
       use_knot_distance="true"
       apply_no_radius="true"
       apply_with_radius="true"
       only_selected="false"
       hide_knots="false" />
    <inkscape:path-effect
       effect="fillet_chamfer"
       id="path-effect8"
       is_visible="true"
       lpeversion="1"
       nodesatellites_param="F,0,0,1,0,0,0,1 @ F,0,0,1,0,24,0,1 @ F,0,0,1,0,24,0,1 @ F,0,0,1,0,0,0,1"
       radius="0"
       unit="px"
       method="auto"
       mode="F"
       chamfer_steps="1"
       flexible="false"
       use_knot_distance="true"
       apply_no_radius="true"
       apply_with_radius="true"
       only_selected="false"
       hide_knots="false" />
    <inkscape:path-effect
       effect="fillet_chamfer"
       id="path-effect1"
       is_visible="true"
       lpeversion="1"
       nodesatellites_param="F,0,0,1,0,24,0,1 @ F,0,0,1,0,24,0,1 @ F,0,0,1,0,15.999998,0,1 @ F,0,0,1,0,0,0,1 @ F,0,0,1,0,0,0,1 @ F,0,0,1,0,0,0,1"
       radius="0"
       unit="px"
       method="auto"
       mode="F"
       chamfer_steps="1"
       flexible="false"
       use_knot_distance="true"
       apply_no_radius="true"
       apply_with_radius="true"
       only_selected="false"
       hide_knots="false" />
    <inkscape:path-effect
       effect="fillet_chamfer"
       id="path-effect8-3"
       is_visible="true"
       lpeversion="1"
       nodesatellites_param="F,0,0,1,0,0,0,1 @ F,0,0,1,0,24,0,1 @ F,0,0,1,0,24,0,1 @ F,0,0,1,0,0,0,1"
       radius="0"
       unit="px"
       method="auto"
       mode="F"
       chamfer_steps="1"
       flexible="false"
       use_knot_distance="true"
       apply_no_radius="true"
       apply_with_radius="true"
       only_selected="false"
       hide_knots="false" />
    <inkscape:path-effect
       effect="fillet_chamfer"
       id="path-effect8-3-7"
       is_visible="true"
       lpeversion="1"
       nodesatellites_param="F,0,0,1,0,0,0,1 @ F,0,0,1,0,16,0,1 @ F,0,0,1,0,16.000003,0,1 @ F,0,0,1,0,0,0,1"
       radius="0"
       unit="px"
       method="auto"
       mode="F"
       chamfer_steps="1"
       flexible="false"
       use_knot_distance="true"
       apply_no_radius="true"
       apply_with_radius="true"
       only_selected="false"
       hide_knots="false" />
    <inkscape:path-effect
       effect="fillet_chamfer"
       id="path-effect8-3-7-2"
       is_visible="true"
       lpeversion="1"
       nodesatellites_param="F,0,0,1,0,0,0,1 @ F,0,0,1,0,16,0,1 @ F,0,0,1,0,0,0,1 @ F,0,0,1,0,13.946336,0,1 @ F,0,0,1,0,0,0,1"
       radius="0"
       unit="px"
       method="auto"
       mode="F"
       chamfer_steps="1"
       flexible="false"
       use_knot_distance="true"
       apply_no_radius="true"
       apply_with_radius="true"
       only_selected="false"
       hide_knots="false" />
    <inkscape:path-effect
       effect="fillet_chamfer"
       id="path-effect8-3-7-2-0"
       is_visible="true"
       lpeversion="1"
       nodesatellites_param="F,0,0,1,0,0,0,1 @ F,0,0,1,0,16,0,1 @ F,0,0,1,0,0,0,1 @ F,0,0,1,0,16.0083,0,1 @ F,0,0,1,0,0,0,1"
       radius="0"
       unit="px"
       method="auto"
       mode="F"
       chamfer_steps="1"
       flexible="false"
       use_knot_distance="true"
       apply_no_radius="true"
       apply_with_radius="true"
       only_selected="false"
       hide_knots="false" />
    <inkscape:path-effect
       effect="fillet_chamfer"
       id="path-effect8-3-7-7"
       is_visible="true"
       lpeversion="1"
       nodesatellites_param="F,0,0,1,0,0,0,1 @ F,0,0,1,0,16,0,1 @ F,0,0,1,0,16.000003,0,1 @ F,0,0,1,0,0,0,1"
       radius="0"
       unit="px"
       method="auto"
       mode="F"
       chamfer_steps="1"
       flexible="false"
       use_knot_distance="true"
       apply_no_radius="true"
       apply_with_radius="true"
       only_selected="false"
       hide_knots="false" />
    <inkscape:path-effect
       effect="fillet_chamfer"
       id="path-effect8-3-7-29"
       is_visible="true"
       lpeversion="1"
       nodesatellites_param="F,0,0,1,0,0,0,1 @ F,0,0,1,0,0,0,1 @ F,0,0,1,0,16,0,1 @ F,0,0,1,0,16.000003,0,1 @ F,0,0,1,0,0,0,1 @ F,0,0,1,0,0,0,1 @ F,0,0,1,0,0,0,1 @ F,0,0,1,0,0,0,1 @ F,0,0,1,0,0,0,1"
       radius="0"
       unit="px"
       method="auto"
       mode="F"
       chamfer_steps="1"
       flexible="false"
       use_knot_distance="true"
       apply_no_radius="true"
       apply_with_radius="true"
       only_selected="false"
       hide_knots="false" />
    <inkscape:path-effect
       effect="fillet_chamfer"
       id="path-effect8-3-7-29-9"
       is_visible="true"
       lpeversion="1"
       nodesatellites_param="F,0,0,1,0,0,0,1 @ F,0,1,1,0,18.461782,0,1 @ F,0,0,1,0,18.461782,0,1 @ F,0,0,1,0,0,0,1"
       radius="0"
       unit="px"
       method="auto"
       mode="F"
       chamfer_steps="1"
       flexible="false"
       use_knot_distance="true"
       apply_no_radius="true"
       apply_with_radius="true"
       only_selected="false"
       hide_knots="false" />
    <inkscape:path-effect
       effect="fillet_chamfer"
       id="path-effect8-3-7-29-2"
       is_visible="true"
       lpeversion="1"
       nodesatellites_param="F,0,0,1,0,0,0,1 @ F,0,0,1,0,16,0,1 @ F,0,0,1,0,16.000003,0,1 @ F,0,0,1,0,0,0,1"
       radius="0"
       unit="px"
       method="auto"
       mode="F"
       chamfer_steps="1"
       flexible="false"
       use_knot_distance="true"
       apply_no_radius="true"
       apply_with_radius="true"
       only_selected="false"
       hide_knots="false" />
  </defs>
  <g
     inkscape:label="Primary tabs"
     inkscape:groupmode="layer"
     id="primary-tabs"
     style="display:inline">
    <path
       style="display:inline;fill:#ffffff;fill-opacity:1;stroke:#000000;stroke-width:14.4211;stroke-linecap:butt;stroke-linejoin:miter;stroke-dasharray:none;stroke-opacity:1"
       d="m 374.56751,174.33461 69.50742,-97.08606 4.94569,-49.091001 A 14.594478,14.594478 48.122535 0 0 434.62502,12.100688 L 321.77563,11.131242 A 15.034625,15.034625 133.7105 0 0 306.63345,26.97082 l 3.55482,66.254694 -71.9907,-20.275901 -30.93334,78.480657 -75.62802,-3.64093 11.70556,81.1574"
       id="primary-tab-1"
       sodipodi:nodetypes="ccccccccc"
       transform="matrix(-0.96717015,0.54363576,0.54363576,0.96717015,437.59639,-40.817305)"
       inkscape:label="Primary tab 1 (Active)"
       inkscape:transform-center-x="55.375655"
       inkscape:transform-center-y="9.6663794"
       inkscape:original-d="m 374.56751,174.33461 69.50742,-97.08606 6.5495,-65.010417 -144.84821,-1.244336 4.41205,82.231717 -71.9907,-20.275901 -30.93334,78.480657 -75.62802,-3.64093 11.70556,81.1574"
       inkscape:path-effect="#path-effect8-3-7-29" />
    <path
       style="display:inline;fill:#bab4ff;fill-opacity:1;stroke:#000000;stroke-width:8;stroke-linecap:butt;stroke-linejoin:miter;stroke-dasharray:none;stroke-opacity:1"
       d="M 434.77425,66.416251 446.13183,27.594453 A 12.097412,12.097412 53.399697 0 0 434.62502,12.100688 L 321.77563,11.131242 a 16.206496,16.206496 135.85954 0 0 -16.342,15.85889 l -0.862,40.24929"
       id="primary-tab-3"
       sodipodi:nodetypes="cccc"
       transform="matrix(0.96717015,0.54363577,-0.54363577,0.96717015,79.367437,-42.679398)"
       inkscape:label="Primary tab 3"
       inkscape:transform-center-x="-55.375654"
       inkscape:transform-center-y="9.6663827"
       inkscape:original-d="M 434.77425,66.416251 450.62443,12.238133 305.77622,10.993797 304.57163,67.239422"
       inkscape:path-effect="#path-effect8-3-7-29-2" />
    <path
       style="display:inline;fill:#9dfca7;fill-opacity:1;stroke:#000000;stroke-width:8;stroke-linecap:butt;stroke-linejoin:miter;stroke-dasharray:none;stroke-opacity:1"
       d="m 440.9644,65.831478 4.8465,-36.291555 A 15.69559,15.69559 47.976543 0 0 429.80055,11.77327 L 317.2864,15.020985 a 15.796769,15.796769 128.89847 0 0 -15.07397,18.682391 l 6.95927,37.368016"
       id="primary-tab-2"
       sodipodi:nodetypes="cccc"
       transform="matrix(-1.1340875,0.02316129,0.02484578,1.0571984,678.12967,103.73472)"
       inkscape:label="Primary tab 2"
       inkscape:transform-center-x="12.596151"
       inkscape:transform-center-y="-17.84474"
       inkscape:original-d="m 440.9644,65.831478 7.29025,-54.590885 -149.42235,4.313069 10.3394,55.51773"
       inkscape:path-effect="#path-effect8-3-7-29-9" />
  </g>
  <g
     inkscape:groupmode="layer"
     id="secondary-tabs"
     inkscape:label="Secondary tabs"
     style="display:inline">
    <path
       style="display:inline;fill:#c6c6c6;fill-opacity:1;stroke:#000000;stroke-width:8;stroke-linecap:butt;stroke-linejoin:miter;stroke-dasharray:none;stroke-opacity:1"
       d="m 440.43079,59.336515 6.80908,-31.460456 a 13.228624,13.228624 51.795897 0 0 -12.6108,-16.023108 l -59.71289,-1.437938 a 16.344123,16.344123 136.98903 0 0 -16.72079,15.598368 l -1.43518,31.622272"
       id="secondary-tab-4"
       sodipodi:nodetypes="cccc"
       inkscape:path-effect="#path-effect8-3-7-7"
       inkscape:original-d="m 440.43079,59.336515 10.19364,-47.098382 -91.70362,-2.208302 -2.1606,47.605822"
       transform="matrix(0.96717015,0.54363577,-0.54363577,0.96717015,43.643891,3.4512139)"
       inkscape:label="Secondary tab 4"
       inkscape:transform-center-x="-55.375653"
       inkscape:transform-center-y="9.6663839" />
    <path
       style="display:inline;fill:#f3f58f;fill-opacity:1;stroke:#000000;stroke-width:8;stroke-linecap:butt;stroke-linejoin:miter;stroke-dasharray:none;stroke-opacity:1"
       d="m 453.3573,56.909501 6.86837,-32.750164 A 12.993698,12.993698 50.924687 0 0 447.50975,8.4986174 L 381.11392,8.49288 377.46607,8.9681702 A 16.010683,16.010683 127.58082 0 0 363.65788,26.910896 l 3.85187,29.597414"
       id="secondary-tab-3"
       sodipodi:nodetypes="ccccc"
       inkscape:path-effect="#path-effect8-3-7-2-0"
       inkscape:original-d="M 453.3573,56.909501 463.50975,8.5 381.11392,8.49288 l -19.52197,2.543584 5.9178,45.471846"
       transform="matrix(1.0831288,0.24039543,-0.24039543,1.0831288,-127.53879,75.949189)"
       inkscape:label="Secondary tab 3"
       inkscape:transform-center-x="-56.463064"
       inkscape:transform-center-y="-11.476699" />
    <path
       style="display:inline;fill:#aef8f8;fill-opacity:1;stroke:#000000;stroke-width:8;stroke-linecap:butt;stroke-linejoin:miter;stroke-dasharray:none;stroke-opacity:1"
       d="m 440.43079,59.336515 6.80908,-31.460456 a 13.228624,13.228624 51.795897 0 0 -12.6108,-16.023108 l -59.71289,-1.437938 a 16.344123,16.344123 136.98903 0 0 -16.72079,15.598368 l -1.43518,31.622272"
       id="secondary-tab-1"
       sodipodi:nodetypes="cccc"
       transform="matrix(-0.96717015,0.54363576,0.54363576,0.96717015,459.2113,4.1141669)"
       inkscape:label="Secondary tab 1"
       inkscape:transform-center-x="55.375651"
       inkscape:transform-center-y="9.6663792"
       inkscape:original-d="m 440.43079,59.336515 10.19364,-47.098382 -91.70362,-2.208302 -2.1606,47.605822"
       inkscape:path-effect="#path-effect8-3-7" />
    <path
       id="path1"
       style="display:inline;fill:#ffffff;fill-opacity:1;stroke:#000000;stroke-width:17.7518;stroke-linecap:butt;stroke-linejoin:miter;stroke-dasharray:none;stroke-opacity:1"
       inkscape:label="Secondary tab 2 (Active)"
       d="m 223.25838,176.37851 c -1.17269,-0.0211 -2.36772,0.077 -3.57226,0.30273 l -10.93164,2.04883 -58.82813,15.89648 a 12.526056,12.526056 0 0 0 -7.8789,17.80469 l 19.61914,38.27539 c -53.79254,21.03996 -88.312506,52.0918 -88.312506,52.0918 0,0 177.517666,176.91838 355.035156,0 -65.87107,-59.26765 -131.69721,-74.52429 -188.47656,-70.32422 -0.11672,-15.80888 -0.4017,-30.46178 -0.96484,-41.42383 -0.43959,-8.55677 -7.4806,-14.52383 -15.68946,-14.67187 z" />
  </g>
  <g
     inkscape:groupmode="layer"
     id="content"
     inkscape:label="Content"
     style="display:inline">
    <ellipse
       style="display:inline;fill:#000000;fill-opacity:1;stroke:none;stroke-width:12.3016;stroke-linecap:round;stroke-linejoin:round;stroke-dasharray:none;stroke-dashoffset:0.8;paint-order:stroke fill markers"
       id="eye-cornea"
       cx="255.58658"
       cy="289.20599"
       rx="66.291428"
       ry="66.291374"
       inkscape:label="Eye cornea" />
    <circle
       style="display:inline;fill:#ffffff;fill-opacity:1;stroke:none;stroke-width:22.1897;stroke-linecap:round;stroke-linejoin:round;stroke-dasharray:none;stroke-dashoffset:0.8;paint-order:stroke fill markers"
       id="eye-glitter"
       cx="277.49857"
       cy="264.24728"
       r="22.189709"
       inkscape:label="Eye glitter" />
  </g>
  <metadata
     id="metadata1">
    <rdf:RDF>
      <cc:Work
         rdf:about="">
        <dc:title>Project logo for drupal/views_st</dc:title>
        <dc:creator>
          <cc:Agent>
            <dc:title>Dávid Andor</dc:title>
          </cc:Agent>
        </dc:creator>
        <dc:relation>https://www.drupal.org/user/23728</dc:relation>
        <dc:subject>
          <rdf:Bag>
            <rdf:li>Drupal</rdf:li>
            <rdf:li>Views</rdf:li>
            <rdf:li>Secondary Tabs</rdf:li>
          </rdf:Bag>
        </dc:subject>
      </cc:Work>
    </rdf:RDF>
  </metadata>
</svg>
